-------------------------------------------------------------------------------
Test set: com.junglemc.sg.AppTest
-------------------------------------------------------------------------------
Tests run: 1, Failures: 0, Errors: 0, Skipped: 0, Time elapsed: 0.008 sec
