com\junglemc\sg\events\EventListener.class
com\junglemc\sg\maps\MapUtils.class
com\junglemc\sg\timers\DeathmatchTimer.class
com\junglemc\sg\sql\CurrencyUtils.class
com\junglemc\sg\timers\PreGameTimer.class
com\junglemc\sg\settings\Utils.class
com\junglemc\sg\sql\SQLUtils.class
com\junglemc\sg\SurvivalGames.class
com\junglemc\sg\commands\InfoCommand.class
com\junglemc\sg\GameState.class
com\junglemc\sg\timers\GameTimer.class
com\junglemc\sg\commands\VoteCommand.class
com\junglemc\sg\sql\MySQL.class
com\junglemc\sg\timers\LobbyTimer.class
com\junglemc\sg\maps\Map.class
com\junglemc\sg\Data.class
com\junglemc\sg\timers\Timer.class
